College Rankings and State Characteristics
…
Data Wrangling

tidying the colleges dataset

colleges <- pivot_longer(colleges,
                         cols = c("2023", "2022", "2021", "2020", "2019", 
                                  "2018","2017", "2016", "2015", "2014",
                                  "2013", "2012", "2011", "2010", "2009"),
                         names_to = "year",
                         values_to = "ranking")
colleges

# A tibble: 1,515 × 4
   school           state year  ranking
   <chr>            <chr> <chr>   <dbl>
 1 Williams College MA    2023        1
 2 Williams College MA    2022        1
 3 Williams College MA    2021        1
 4 Williams College MA    2020        1
 5 Williams College MA    2019        1
 6 Williams College MA    2018        1
 7 Williams College MA    2017        1
 8 Williams College MA    2016        1
 9 Williams College MA    2015        1
10 Williams College MA    2014        1
# ℹ 1,505 more rows

tidying the universities dataset

universities <- pivot_longer(universities,
                         cols = c("2023", "2022", "2021", "2020", "2019", 
                                  "2018","2017", "2016", "2015", "2014",
                                  "2013", "2012", "2011", "2010", "2009"),
                         names_to = "year",
                         values_to = "ranking")
universities 

# A tibble: 1,560 × 4
   school               state year  ranking
   <chr>                <chr> <chr>   <dbl>
 1 Princeton University NJ    2023        1
 2 Princeton University NJ    2022        1
 3 Princeton University NJ    2021        1
 4 Princeton University NJ    2020        1
 5 Princeton University NJ    2019        1
 6 Princeton University NJ    2018        1
 7 Princeton University NJ    2017        1
 8 Princeton University NJ    2016        1
 9 Princeton University NJ    2015        1
10 Princeton University NJ    2014        1
# ℹ 1,550 more rows

colleges <- colleges |> 
  mutate(type = "college")

universities <- universities |> 
  mutate(type = "universities")

combining the two data sets using by the type columns created above

full_data <- bind_rows(colleges, universities)
full_data

# A tibble: 3,075 × 5
   school           state year  ranking type   
   <chr>            <chr> <chr>   <dbl> <chr>  
 1 Williams College MA    2023        1 college
 2 Williams College MA    2022        1 college
 3 Williams College MA    2021        1 college
 4 Williams College MA    2020        1 college
 5 Williams College MA    2019        1 college
 6 Williams College MA    2018        1 college
 7 Williams College MA    2017        1 college
 8 Williams College MA    2016        1 college
 9 Williams College MA    2015        1 college
10 Williams College MA    2014        1 college
# ℹ 3,065 more rows
…
Showing the results of the previous elections per state in relation to the number of schools and population

counts <- full_data |> 
  filter(year == 2023) |> 
  count(type, state) |> 
  pivot_wider(names_from = type,
              values_from = n,
              values_fill = 0) |> 
  left_join(presvote_pop, by = "state", relationship = "many-to-one") |> 
  mutate(biden_pct = (bidenvotes / (bidenvotes + trumpvotes))) |> 
  mutate(winner = if_else(biden_pct > 0.5, "Biden", "Trump"))
counts

# A tibble: 36 × 8
   state college universities trumpvotes bidenvotes `2020pop` biden_pct winner
   <chr>   <int>        <int>      <dbl>      <dbl>     <dbl>     <dbl> <chr> 
 1 CA          8           16    6006429   11110250  39538223     0.649 Biden 
 2 CO          2            2    1364607    1804352   5773714     0.569 Biden 
 3 CT          3            2     714717    1080831   3605944     0.602 Biden 
 4 FL          1            4    5668731    5297045  21538187     0.483 Trump 
 5 GA          2            3    2461854    2473633  10711908     0.501 Biden 
 6 IA          2            1     897672     759061   3190369     0.458 Trump 
 7 IL          5            4    2446891    3471915  12812508     0.587 Biden 
 8 IN          4            3    1729519    1242416   6785528     0.418 Trump 
 9 KY          2            0    1326646     772474   4505836     0.368 Trump 
10 MA          8           10     976414    1985023   7029917     0.670 Biden 
# ℹ 26 more rows
…
